%YAML 1.1
%TAG !u! tag:unity3d.com,2011:
--- !u!114 &11400000
MonoBehaviour:
  m_ObjectHideFlags: 0
  m_PrefabParentObject: {fileID: 0}
  m_PrefabInternal: {fileID: 0}
  m_GameObject: {fileID: 0}
  m_Enabled: 1
  m_EditorHideFlags: 0
  m_Script: {fileID: 11500000, guid: a70281229d520274d8c78f2e40a0222d, type: 3}
  m_Name: AITriggerRanges
  m_EditorClassIdentifier: 
  EvadeSuccessfulDistance: 10
  ChasingToAttackDistance: 2
  PatrolDestinationReachedRange: 1
  MeleeAttackRange: 2
  ChaseWalkDistance: 3
  StoppingDistance: 0.5
